…
#display NA counts
training %>%
  map_df(function(x) sum(is.na(x))) %>%
  gather(feature, num_nulls) %>%
  print(n = 15)
```
```{r}
## # A tibble: 160 x 2
##                 feature num_nulls
##                   <chr>     <int>
##  1                   X1         0
##  2            user_name         0
##  3 raw_timestamp_part_1         0
##  4 raw_timestamp_part_2         0
##  5       cvtd_timestamp         0
##  6           new_window         0
##  7           num_window         0
##  8            roll_belt         0
##  9           pitch_belt         0
## 10             yaw_belt         0
## 11     total_accel_belt         0
## 12   kurtosis_roll_belt     19216
## 13  kurtosis_picth_belt     19216
## 14    kurtosis_yaw_belt     19216
## 15   skewness_roll_belt     19216
## # ... with 145 more rows
```
…
#Validate all columns for NAs
training %>%
  map_df(function(x) sum(is.na(x))) %>%
  gather(feature, num_nulls) %>%
  print(n = 15)
```
```{r}
## # A tibble: 54 x 2
##             feature num_nulls
##               <chr>     <int>
##  1       num_window         0
##  2        roll_belt         0
##  3       pitch_belt         0
##  4         yaw_belt         0
##  5 total_accel_belt         0
##  6     gyros_belt_x         0
##  7     gyros_belt_y         0
##  8     gyros_belt_z         0
##  9     accel_belt_x         0
## 10     accel_belt_y         0
## 11     accel_belt_z         0
## 12    magnet_belt_x         0
## 13    magnet_belt_y         0
## 14    magnet_belt_z         0
## 15         roll_arm         0
## # ... with 39 more rows
```
…
